{
  "log": {
    "disabled": false,
    "level": "info",
    "timestamp": true
  },
  "ntp": {
    "enabled": false
  },
  "dns": {
    "servers": [
      {
        "tag": "DnsDirect",
        "address": "192.168.1.3",
        "strategy": "ipv4_only",
        "detour": "DIRECT"
      },
      {
        "tag": "DnsFakeIp",
        "address": "fakeip"
      }
    ],
    "rules": [
      {
        "outbound": "any",
        "server": "DnsDirect"
      },
      {
        "rule_set": [
          "AI",
          "Netflix",
          "Proxy",
          "Game"
        ],
        "query_type": [
          "A",
          "AAAA"
        ],
        "server": "DnsFakeIp"
      }
    ],
    "fakeip": {
      "enabled": true,
      "inet4_range": "198.18.0.0/15",
      "inet6_range": "fc00::/18"
    },
    "final": "DnsDirect",
    "disable_cache": true,
    "disable_expire": true,
    "independent_cache": true,
    "reverse_mapping": true,
    "mapping_override": true,
    "client_subnet": "127.0.0.1/24"
  },
  "inbounds": [
    {
      "type": "tun",
      "tag": "tun-in",
      "interface_name": "tun0",
      "inet4_address": "172.19.0.1/30",
      "mtu": 9000,
      "gso": true,
      "sniff": true,
      "auto_route": true,
      "strict_route": true,
      "inet4_route_address": [
        "0.0.0.0/1",
        "128.0.0.0/1"
      ],
      "inet4_route_exclude_address": [
        "192.168.0.0/16"
      ],
      "udp_timeout": "5m",
      "stack": "system"
    }
  ],
  "outbound_providers": [],
  "outbounds": [
    {
      "type": "selector",
      "tag": "GLOBAL",
      "outbounds": "DIRECT",
      "providers": [],
      "interrupt_exist_connections": true
    },
    {
      "type": "selector",
      "tag": "NETFLIX",
      "outbounds": "DIRECT",
      "providers": [],
      "interrupt_exist_connections": true
    },
    {
      "type": "selector",
      "tag": "GPT",
      "outbounds": "DIRECT",
      "providers": [],
      "interrupt_exist_connections": true
    },
    {
      "type": "selector",
      "tag": "Game",
      "outbounds": "DIRECT",
      "providers": [],
      "interrupt_exist_connections": true
    },
    {
      "type": "direct",
      "tag": "DIRECT"
    },
    {
      "type": "dns",
      "tag": "DnsOut"
    }
  ],
  "route": {
    "rules": [
      {
        "type": "logical",
        "mode": "and",
        "rules": [
          {
            "domain_keyword": [
              "googlevideo"
            ]
          },
          {
            "network": [
              "udp"
            ]
          },
          {
            "port": [
              443
            ]
          }
        ],
        "outbound": "REJECT"
      },
      {
        "protocol": "dns",
        "outbound": "DnsOut"
      },
      {
        "rule_set": [
          "Private"
        ],
        "outbound": "DIRECT",
        "skip_resolve": true
      },
      {
        "rule_set": [
          "Game"
        ],
        "outbound": "Game",
        "skip_resolve": true
      },
      {
        "rule_set": [
          "AI"
        ],
        "outbound": "GPT",
        "skip_resolve": true
      },
      {
        "rule_set": [
          "Netflix"
        ],
        "outbound": "NETFLIX",
        "skip_resolve": true
      },
      {
        "rule_set": [
          "Proxy"
        ],
        "outbound": "GLOBAL",
        "skip_resolve": true
      }
    ],
    "rule_set": [
      {
        "tag": "Private",
        "type": "remote",
        "format": "source",
        "path": "./ruleset/private.json",
        "url": "https://bitbucket.org/dotwho/rule/raw/release/singbox/private.json",
        "download_detour": "GLOBAL"
      },
      {
        "tag": "AI",
        "type": "remote",
        "format": "source",
        "path": "./ruleset/ai.json",
        "url": "https://bitbucket.org/dotwho/rule/raw/release/singbox/ai.json",
        "download_detour": "GLOBAL"
      },
      {
        "tag": "Netflix",
        "type": "remote",
        "format": "source",
        "path": "./ruleset/netflix.json",
        "url": "https://bitbucket.org/dotwho/rule/raw/release/singbox/netflix.json",
        "download_detour": "GLOBAL"
      },
      {
        "tag": "Proxy",
        "type": "remote",
        "format": "source",
        "path": "./ruleset/proxy.json",
        "url": "https://bitbucket.org/dotwho/rule/raw/release/singbox/proxy.json",
        "download_detour": "GLOBAL"
      },
      {
        "tag": "Game",
        "type": "remote",
        "format": "source",
        "path": "./ruleset/game.json",
        "url": "https://bitbucket.org/dotwho/rule/raw/release/singbox/game.json",
        "download_detour": "GLOBAL"
      }
    ],
    "final": "DIRECT",
    "auto_detect_interface": true,
    "default_mark": 233
  },
  "experimental": {
    "cache_file": {
      "enabled": true
    },
    "clash_api": {
      "external_controller": "0.0.0.0:9090",
      "external_ui": "",
      "external_ui_download_url": "",
      "external_ui_download_detour": "",
      "default_mode": "rule"
    }
  }
}
